7
2.537e-08,6.9762e-08,6.0375e-08,4.4956e-08,2.5684e-08,3.3674e-08,2.9994e-08
-85.6338,-104.4196,-103.1644,-100.6029,-95.7404,-98.093,-97.088
0,0,0,0,0,0,0
90,90,90,90,98.9597,90,57.7622
125.9247,257.6799,104.2733,152.8064,125.9247,37.5977,125.9247
90,90,90,90,98.9597,90,57.7622
305.9247,282.3201,75.7267,207.1936,305.9247,322.4023,305.9247
