7
1.4761e-08,5.6904e-08,7.2249e-08,2.4682e-08,1.6869e-08,4.5264e-08,1.6469e-08
-80.9296,-102.6501,-104.7239,-95.3948,-92.0889,-100.6622,-91.8805
0,0,0,0,0,0,0
115.4076,96.3902,95.029,104.8682,127.7755,98.0433,54.058
215.9265,258.9931,98.628,199.1441,215.9265,349.9472,215.9265
64.5924,83.6098,84.971,75.1318,127.7755,81.9567,54.058
35.9265,281.0069,81.372,160.8559,35.9265,10.0528,35.9265
