7
2.1569e-08,8.1904e-08,5.2307e-08,3.3339e-08,2.1936e-08,3.3328e-08,2.6855e-08
-84.2237,-105.8134,-101.9185,-98.0062,-94.3705,-98.0034,-96.1278
0,0,0,0,0,0,0
90,90,90,90,100.5064,90,53.4314
179.9823,254.7317,114.3523,179.9885,179.9823,0.011461,179.9823
90,90,90,90,100.5064,90,53.4314
359.9823,285.2683,65.6477,180.0115,359.9823,359.9885,359.9823
