7
1.476e-08,7.6388e-08,5.1214e-08,4.0046e-08,1.6868e-08,3.247e-08,1.6468e-08
-80.9292,-105.2077,-101.735,-99.5984,-92.0886,-97.7768,-91.8802
0,0,0,0,0,0,0
64.5911,85.2441,82.8963,80.9004,127.7771,78.7522,54.0565
251.9986,266.8973,94.6504,198.7036,251.9986,336.5366,251.9986
115.4089,94.7559,97.1037,99.0996,127.7771,101.2478,54.0565
71.9986,273.1027,85.3496,161.2964,71.9986,23.4634,71.9986
