7
8.2403e-09,8.4115e-08,4.3333e-08,4.8483e-08,9.1598e-09,1.9052e-08,1.7997e-08
-75.8661,-106.0447,-100.2835,-101.259,-86.785,-93.146,-92.6514
0,0,0,0,0,0,0
90,90,90,90,115.8929,90,27.2493
324.0016,274.5459,81.15,185.7332,324.0016,345.2728,324.0016
90,90,90,90,115.8929,90,27.2493
144.0016,265.4541,98.85,174.2668,144.0016,14.7272,144.0016
