7
1.5701e-08,7.6536e-08,5.1518e-08,5.2354e-08,1.6203e-08,2.0342e-08,2.2417e-08
-81.4658,-105.2245,-101.7864,-101.9263,-91.7389,-93.7152,-94.5588
0,0,0,0,0,0,0
90,90,90,90,104.2926,90,44.4598
305.9284,276.9137,79.6983,194.0546,305.9284,321.3176,305.9284
90,90,90,90,104.2926,90,44.4598
125.9284,263.0863,100.3017,165.9454,125.9284,38.6824,125.9284
