7
1.5671e-08,8.5167e-08,4.5333e-08,4.0297e-08,1.6174e-08,2.7099e-08,2.2396e-08
-81.4493,-106.1527,-100.6755,-99.6526,-91.7234,-96.2064,-94.5507
0,0,0,0,0,0,0
90,90,90,90,104.3187,90,44.4054
341.9847,280.0778,70.8074,186.9079,341.9847,349.6973,341.9847
90,90,90,90,104.3187,90,44.4054
161.9847,259.9222,109.1926,173.0921,161.9847,10.3027,161.9847
