7
2.5357e-08,7.5159e-08,6.05e-08,3.1766e-08,2.5671e-08,3.6723e-08,2.9983e-08
-85.6293,-105.0668,-103.1823,-97.5863,-95.7361,-98.8459,-97.0848
0,0,0,0,0,0,0
90,90,90,90,98.9642,90,57.749
17.971,288.7189,66.504,165.7417,17.971,12.301,17.971
90,90,90,90,98.9642,90,57.749
197.971,251.2811,113.496,194.2583,197.971,347.699,197.971
