7
2.5356e-08,6.0494e-08,7.5152e-08,3.1761e-08,2.567e-08,3.6751e-08,2.9982e-08
-85.629,-103.1815,-105.066,-97.5851,-95.7357,-98.8526,-97.0845
0,0,0,0,0,0,0
90,90,90,90,98.9646,90,57.7478
341.9078,293.4801,71.2935,194.3548,341.9078,347.6277,341.9078
90,90,90,90,98.9646,90,57.7478
161.9078,246.5199,108.7065,165.6452,161.9078,12.3723,161.9078
