7
2.6666e-08,6.3876e-08,6.3864e-08,4.1864e-08,2.6964e-08,4.1896e-08,3.1098e-08
-86.0663,-103.6539,-103.6523,-99.984,-96.163,-99.9907,-97.4018
0,0,0,0,0,0,0
90,90,90,90,98.531,90,59.0355
71.953,277.4308,82.5678,142.7258,71.953,37.2405,71.953
90,90,90,90,98.531,90,59.0355
251.953,262.5692,97.4322,217.2742,251.953,322.7595,251.953
