7
1.4761e-08,5.1203e-08,7.6395e-08,4.0026e-08,1.6869e-08,3.2495e-08,1.6469e-08
-80.9296,-101.7332,-105.2085,-99.594,-92.0889,-97.7836,-91.8805
0,0,0,0,0,0,0
64.5924,82.8949,85.2446,80.8958,127.7756,78.7611,54.058
107.8905,265.3761,93.0841,161.2732,107.8905,23.4603,107.8905
115.4076,97.1051,94.7554,99.1042,127.7756,101.2389,54.058
287.8905,274.6239,86.9159,198.7268,287.8905,336.5397,287.8905
