7
2.1567e-08,5.3572e-08,7.7982e-08,2.7239e-08,2.1934e-08,4.4425e-08,2.6854e-08
-84.2228,-102.126,-105.3871,-96.251,-94.3697,-100.4998,-96.1273
0,0,0,0,0,0,0
90,90,90,90,100.5074,90,53.4286
143.9172,251.0137,102.915,152.205,143.9172,16.6133,143.9172
90,90,90,90,100.5074,90,53.4286
323.9172,288.9863,77.085,207.795,323.9172,343.3867,323.9172
